[
	{
		"id": "pot_remedy",
		"name": "remedy",
		"desc": "Cures most common ailments and fortifies the body.",
		"require": "g.potions>=8",
		"level": 10,
		"buy": {
			"gold": 2500,
			"research": 3000,
			"potionessence": 1
		},
		"cost": {
			"herbs": 50,
			"nature": 10,
			"naturegem": 15,
			"gems": 5,
			"potionessence": 1
		},
		"use": {
			"action": {
				"cure": [
					"paralysis",
					"enrage",
					"charmed",
					"fear",
					"silence",
					"sick"
				],
				"targets": "self"
			},
			"dot": {
				"duration": 300,
				"effect": {
					"hp": 1
				},
				"mod": {
					"hp.max": 100
				}
			}
		}
	},
	{
		"id": "pot_midas",
		"name": "sip of gold",
		"desc": "Temporarily grants you an impeccable ability to acquire valuables.",
		"require": "g.potions>=9",
		"level": 10,
		"buy": {
			"gold": 5000,
			"research": 6000,
			"potionessence": 1
		},
		"cost": {
			"herbs": 50,
			"gold": 2000,
			"gems": 40,
			"spirit": 15,
			"potionessence": 2
		},
		"use": {
			"dot": {
				"duration": 1200,
				"effect": {
					"gold": 5,
					"gems": 0.1
				}
			}
		}
	},
	{
		"id": "pot_souls",
		"name": "soulbind essence",
		"desc": "A measure of this sickly green substance can significantly improve the effects of soul traps.",
		"require": "g.potions>=6&&g.evil>0",
		"level": 10,
		"buy": {
			"gold": 2500,
			"research": 3000,
			"potionessence": 1
		},
		"cost": {
			"souls": 15,
			"gold": 500,
			"spiritgem": 5,
			"spirit": 15,
			"shadowgem": 5,
			"potionessence": 1
		},
		"use": {
			"dot": {
				"duration": 1800,
				"mod": {
					"trapsoul.run.bonedust": -0.2,
					"trapsoul.length": -5,
					"trapsoul.result.souls.max": 0.25
				}
			}
		}
	},
	{
		"id": "pot_metallicizer",
		"name": "liquid metal",
		"desc": "A flask of metal that stays liquid even in the coldest weather. Converts organic materials to more liquid metal. Becomes inert after some time.",
		"require": "g.puppet_enhancedlabs>0&&g.potions>0",
		"level": 10,
		"buy": {
			"gold": 4500,
			"research": 3000,
			"potionessence": 1
		},
		"cost": {
			"herbs": 50,
			"gold": 2500,
			"gems": 25,
			"mana": 15,
			"potionessence": 1
		},
		"use": {
			"dot": {
				"id": "metallicize",
				"name": "liquidation",
				"duration": 120,
				"effect": {
					"bodies": -1,
					"herbs": -1,
					"hp": -2
				},
				"mod": {
					"gatherherbs.result.herbs": -0.2,
					"gatherherbs.result.gold": 4,
					"murder.result.bodies": -1,
					"murder.result.gold": 200
				}
			}
		}
	},
	{
		"id": "pot_invisibility",
		"name": "vial of invisibility",
		"desc": "Appears to contain nothing at all.",
		"require": "g.madcap>0&&g.potions>0",
		"level": 10,
		"buy": {
			"gold": 2500,
			"research": 3000,
			"potionessence": 1
		},
		"cost": {
			"herbs": 50,
			"gold": 2500,
			"spiritgem": 25,
			"hp": 150,
			"spirit": 15,
			"potionessence": 1
		},
		"use": {
			"dot": {
				"id": "pot_invisibility_effect",
				"name": "invisibility",
				"duration": 1800,
				"mod": {
					"player.dodge": 25,
					"player.speed": 15,
					"heist.result.gems.min": 1,
					"heist.result.gems.max": 1,
					"heist.length": -25
				}
			}
		}
	},
	{
		"id": "pot_breath1",
		"name": "portion of waterbreathing",
		"desc": "Unusually, prepared by baking special herbs into a brownie.",
		"require": "g.potions>=1",
		"buy": {
			"gold": 25,
			"research": 50
		},
		"cost": {
			"herbs": 10
		},
		"use": {
			"dot": {
				"duration": 120,
				"effect": {
					"breath": 3,
					"water": 0.1
				}
			}
		}
	},
	{
		"id": "pot_mana1",
		"name": "draught of mana",
		"require": "g.potions>=1",
		"buy": {
			"gold": 25,
			"research": 50
		},
		"cost": {
			"herbs": 10
		},
		"use": {
			"mana": 5
		}
	},
	{
		"id": "pot_manadot",
		"name": "drip of mana",
		"desc": "Raw mana injected right into the veins of a mage can allow for sustained casting, if one disregards the side-effects",
		"require": "g.potions>=8",
		"buy": {
			"gold": 250,
			"research": 500
		},
		"cost": {
			"herbs": 25,
			"managem": 5
		},
		"use": {
			"dot": {
				"id": "manadrip",
				"name": "mana drip",
				"tags": "manadot",
				"level": 15,
				"duration": 900,
				"effect": {
					"mana": 1,
					"hp": -1
				}
			}
		}
	},
	{
		"id": "pot_stamdot",
		"name": "potion of bull's tenacity",
		"desc": "This reddish potion causes a surge of energy in the imbiber, at the expense of health",
		"require": "g.potions>=8",
		"buy": {
			"gold": 250,
			"research": 500
		},
		"cost": {
			"herbs": 25,
			"managem": 5,
			"bloodgem": 5
		},
		"use": {
			"dot": {
				"id": "tenacity",
				"name": "bull's tenacity",
				"tags": "stamdot",
				"level": 15,
				"duration": 900,
				"effect": {
					"stamina": 2.25,
					"hp": -1
				}
			}
		}
	},
	{
		"id": "pot_fake",
		"name": "potion of eternal youth",
		"desc": "Ensures the drinker never becomes old. For sale only",
		"require": "g.potions>=1&&g.evil>0",
		"buy": {
			"gold": 250,
			"research": 500,
			"potionessence": 1
		},
		"cost": {
			"herbs": 25,
			"bodies": 15,
			"shadowgem": 2,
			"potionessence": 1
		},
		"sell": {
			"gold": 2000,
			"gems": 25
		},
		"use": {
			"dot": {
				"id": "fakeeternalyouth",
				"name": "eternal youth",
				"duration": 150,
				"effect": {
					"hp": -50
				}
			}
		}
	},
	{
		"id": "pot_manaburn",
		"name": "potion of mana burn",
		"desc": "Violently expells all mana from user's body for a time.",
		"require": "g.potions>=999",
		"buy": {
			"gold": 250,
			"research": 500
		},
		"cost": {
			"herbs": 10
		},
		"use": {
			"dot": {
				"id": "manaburn",
				"name": "mana burn",
				"duration": 600,
				"mod": {
					"manas.max": -1000
				},
				"effect": {
					"manas": -50
				}
			}
		}
	},
	{
		"id": "pot_cparalysis",
		"name": "tincture of limberness",
		"desc": "Removes most forms of inisidious motion impairment.",
		"level": 5,
		"require": "g.potions>=5",
		"cost": {
			"herbs": 1,
			"managem": 1
		},
		"use": "cureparalyze"
	},
	{
		"id": "pot_csilence",
		"name": "echoing flask",
		"desc": "Amplifies even significantly muffled sounds.",
		"level": 7,
		"require": "g.potions>=5",
		"cost": {
			"herbs": 1,
			"airgem": 1
		},
		"use": "speak"
	},
	{
		"id": "pot_heal1",
		"buy": {
			"gold": 25,
			"research": 50
		},
		"level": 1,
		"cost": {
			"herbs": 10
		},
		"name": "minor healing",
		"require": "g.potions>0",
		"use": {
			"hp": 75
		}
	},
	{
		"id": "pot_stam1",
		"name": "draught of stamina",
		"require": "g.potions>0",
		"level": 1,
		"buy": {
			"gold": 25,
			"research": 50
		},
		"cost": {
			"herbs": 10
		},
		"use": {
			"stamina": 10
		}
	},
	{
		"id": "pot_sp",
		"name": "philter of clarity",
		"desc": "A master's skill in liquid form",
		"require": "g.potions>0",
		"level": 1,
		"buy": {
			"gold": 250,
			"research": 500,
			"potionessence": 1
		},
		"cost": {
			"herbs": 10,
			"potionessence": 4
		},
		"use": {
			"sp": 1
		}
	},
	{
		"id": "pot_sp_sink",
		"name": "phial of skillfulness",
		"desc": "Converts accumulated life experience into short-term benefit",
		"require": "g.potions>=9",
		"level": 5,
		"buy": {
			"gold": 2500,
			"research": 5000,
			"sp": 100,
			"potionessence": 1
		},
		"cost": {
			"sp": 50,
			"potionessence": 1
		},
		"use": {
			"research": 2000,
			"manas": 250,
			"stamina": 250
		}
	},
	{
		"id": "pot_explodium",
		"name": "volatile concoction",
		"desc": "Holding it seems dangerous. Not holding it, even more so.",
		"require": "g.potions>=9&&g.alchemist>0",
		"level": 5,
		"buy": {
			"gold": 2500,
			"research": 3000
		},
		"cost": {
			"fire": 15,
			"air": 15,
			"herbs": 15,
			"water": 15,
			"potioncombatflask": 5
		},
		"use": {
			"attack": {
				"targets": "enemies",
				"dot": {
					"name": "volatile combustion",
					"kind": "fire",
					"dmg": "12~15",
					"duration": 120
				}
			}
		}
	},
	{
		"id": "pot_corrosion",
		"name": "corrosive mixture",
		"desc": "Highly acidic and prone to reducing even the toughest materials to sludge.",
		"require": "g.potions>=7",
		"level": 5,
		"buy": {
			"gold": 1000,
			"research": 2000
		},
		"cost": {
			"shadow": 5,
			"air": 5,
			"herbs": 15,
			"water": 5,
			"potioncombatflask": 1
		},
		"use": {
			"attack": {
				"targets": "enemy",
				"dot": {
					"name": "corroding",
					"kind": "acid",
					"dmg": "3~5",
					"duration": 120,
					"mod": {
						"self": {
							"defense": -25
						}
					}
				}
			}
		}
	},
	{
		"id": "pot_sticky",
		"name": "engulfing glue",
		"desc": "Quickly solidifies when in contact with air.",
		"require": "g.potions>=6",
		"level": 5,
		"buy": {
			"gold": 1000,
			"research": 2000
		},
		"cost": {
			"nature": 5,
			"earth": 5,
			"herbs": 15,
			"water": 5,
			"potioncombatflask": 1
		},
		"use": {
			"attack": {
				"targets": "enemy",
				"dot": {
					"name": "stuck",
					"kind": "nature",
					"duration": 120,
					"mod": {
						"self": {
							"speed": -15
						}
					}
				}
			}
		}
	},
	{
		"id": "pot_smoke",
		"name": "smoke bomb",
		"desc": "Only someone gifted with true sight would be able to see through the thick smoke produced by this alchemical marvel.",
		"require": "g.potions>=5",
		"level": 5,
		"buy": {
			"gold": 1000,
			"research": 2000
		},
		"cost": {
			"shadow": 5,
			"earth": 5,
			"herbs": 15,
			"water": 5,
			"potioncombatflask": 1
		},
		"use": {
			"attack": {
				"targets": "all",
				"dot": {
					"name": "blinded",
					"kind": "shadow",
					"duration": 120,
					"mod": {
						"self": {
							"tohit": -25
						}
					}
				}
			}
		}
	},
	{
		"id": "pot_ignition",
		"name": "flame potion",
		"desc": "Throw at an enemy and watch them ignite into a fireball.",
		"require": "g.potions>=4",
		"level": 5,
		"buy": {
			"gold": 1000,
			"research": 2000
		},
		"cost": {
			"fire": 5,
			"earth": 5,
			"herbs": 15,
			"air": 5,
			"potioncombatflask": 1
		},
		"use": {
			"attack": {
				"targets": "enemy",
				"dot": {
					"name": "ignited",
					"kind": "fire",
					"dmg": "6~10",
					"duration": 120
				}
			}
		}
	},
	{
		"id": "pot_frost",
		"name": "Everfreeze potion",
		"desc": "More accurately a set of potions, designed to induce rapid heat loss in the affected subject.",
		"require": "g.alchemist>0",
		"level": 5,
		"buy": {
			"gold": 5500,
			"research": 6600
		},
		"cost": {
			"water": 15,
			"shadow": 15,
			"herbs": 25,
			"mana": 15,
			"potioncombatflask": 5
		},
		"use": {
			"attack": {
				"targets": "enemy",
				"dot": {
					"name": "everfrozen",
					"kind": "ice",
					"dmg": "5",
					"duration": 120,
					"mod": {
						"self": {
							"tohit": -15,
							"speed": -15,
							"dodge": -25
						}
					}
				}
			}
		}
	},
	{
		"id": "pot_stam2",
		"name": "potion of monster's stamina",
		"require": "g.potions>=5",
		"level": 5,
		"buy": {
			"gold": 300,
			"research": 500,
			"codices": 30
		},
		"cost": {
			"herbs": 30,
			"watergem": 1
		},
		"use": {
			"stamina": 50
		},
		"flavor": "Magnum"
	},
	{
		"id": "pot_adamant",
		"name": "adamant salve",
		"require": "g.potions>=7",
		"level": 10,
		"buy": {
			"gold": 2500,
			"tomes": 15,
			"earthgem": 5
		},
		"cost": {
			"herbs": 30,
			"gems": 1
		},
		"use": {
			"dot": {
				"id": "dot_adamantskin",
				"name": "adamant shell",
				"tags": "toughskin",
				"duration": 1800,
				"mod": {
					"self.defense": 50
				}
			}
		}
	},
	{
		"id": "hestiabrew",
		"name": "hestia's homebrew",
		"require": "witch",
		"level": 4,
		"buy": {
			"gold": 25,
			"research": 150
		},
		"cost": {
			"herbs": 15
		},
		"use": {
			"dot": {
				"duration": 50,
				"effect": {
					"hp": 2,
					"nature": 0.5
				}
			}
		}
	},
	{
		"id": "pot_heal3",
		"name": "healing potion",
		"require": "g.potions>=9",
		"buy": {
			"gold": 100,
			"lightgem": 1,
			"research": 500
		},
		"level": 7,
		"cost": {
			"herbs": 25,
			"gems": 3
		},
		"use": {
			"hp": 200
		}
	},
	{
		"id": "pot_truestrike",
		"name": "true striking",
		"level": 10,
		"require": "g.potions>=10",
		"buy": {
			"gold": 500,
			"tomes": 3,
			"research": 500,
			"ichor": 1
		},
		"cost": {
			"spiritgem": 1,
			"ichor": 1
		},
		"use": {
			"dot": {
				"mod": {
					"player.tohit": 25
				},
				"duration": 1800
			}
		}
	},
	{
		"id": "pot_serenity",
		"name": "serenity",
		"level": 11,
		"require": "g.potions>=10",
		"buy": {
			"gold": 500,
			"tomes": 5,
			"research": 500,
			"ichor": 1
		},
		"cost": {
			"lightgem": 1,
			"ichor": 1
		},
		"use": {
			"dot": {
				"mod": {
					"stress.rate": -2
				},
				"duration": 1800
			}
		}
	},
	{
		"id": "pot_godspeed",
		"name": "godspeed",
		"level": 15,
		"require": "g.potions>=10",
		"buy": {
			"gold": 500,
			"tomes": 5,
			"research": 500,
			"ichor": 1
		},
		"cost": {
			"airgem": 1,
			"ichor": 1
		},
		"use": {
			"dot": {
				"mod": {
					"speed": 25
				},
				"duration": 1800
			}
		}
	},
	{
		"id": "pot_godsblood",
		"name": "god's blood",
		"level": 12,
		"require": "g.potions>=10",
		"buy": {
			"gold": 500,
			"tomes": 5,
			"research": 500,
			"ichor": 1
		},
		"cost": {
			"herbs": 50,
			"ichor": 1
		},
		"use": {
			"dot": {
				"mod": {
					"hp.max": 300
				},
				"duration": 3600
			}
		}
	},
	{
		"id": "pot_weaponmeld",
		"name": "weaponmeld salve",
		"desc": "Applied to a weapon, lets the wielder utilize his skills to the fullest extent.",
		"level": 12,
		"require": "g.potions>=10&&(g.bladelore+g.hammerlore)>5",
		"buy": {
			"gold": 500,
			"tomes": 5,
			"research": 500,
			"potionessence": 1
		},
		"cost": {
			"herbs": 50,
			"hp": 150,
			"earth": 15,
			"bloodgem": 50,
			"potionessence": 3
		},
		"use": {
			"dot": {
				"mod": {
					"bladelore.mod.player.bonuses.slash": 0.5,
					"bladelore.mod.player.hits.slash": 0.5,
					"hammerlore.mod.player.bonuses.blunt": 0.5,
					"hammerlore.mod.player.hits.blunt": 0.5
				},
				"duration": 600
			}
		}
	},
	{
		"id": "pot_perfection",
		"name": "flask of perfection",
		"desc": "Reshapes your body to make it ever so slightly more ideal.",
		"level": 25,
		"require": "g.potions>=10",
		"buy": {
			"gold": 15000,
			"tomes": 50,
			"research": 15000,
			"firegem": 50,
			"airgem": 50,
			"watergem": 50,
			"earthgem": 50,
			"potionessence": 1
		},
		"cost": {
			"herbs": 50,
			"hp": 150,
			"research": 15000,
			"gold": 10000,
			"bloodgem": 50,
			"potionessence": 5
		},
		"use": {
			
			"hp.max": 2
		}
	},
	{
		"id": "pot_mule",
		"name": "packmule's formula",
		"desc": "Allows the user to become more vigorous over time.",
		"level": 25,
		"require": "g.potions>=10",
		"buy": {
			"gold": 15000,
			"tomes": 50,
			"research": 25000,
			"runestones": 50,
			"potionessence": 1
		},
		"cost": {
			"herbs": 50,
			"runestones": 30,
			"research": 15000,
			"gold": 10000,
			"bloodgem": 50,
			"potionessence": 5
		},
		"use": {

			"stamina.max": 1,
			"element.max": -0.25,
			"mana.max": -0.1
		},
		"flavor": "A potent form of an additive used to grow exceptionally healthy cattle."
	},
	{
		"id": "pot_bigbrain",
		"name": "bubble of mind expansion",
		"desc": "Expands your mind's capacity for knowledge.",
		"level": 25,
		"require": "g.potions>=10",
		"buy": {
			"gold": 15000,
			"tomes": 50,
			"research": 15000,
			"firegem": 50,
			"airgem": 50,
			"watergem": 50,
			"earthgem": 50,
			"potionessence": 1
		},
		"cost": {
			"herbs": 50,
			"hp": 150,
			"research": 15000,
			"gold": 10000,
			"managem": 50,
			"potionessence": 5
		},
		"use": {
			"research.max": 250,
			"research.rate": 1,
			"mana.max": 0.1
		},
		"flavor": "It's big brain time."
	},
	{
		"id": "pot_vileempowerment",
		"name": "vile concoction",
		"desc": "What was theirs is now yours.",
		"level": 25,
		"require": "g.potions>=10&&g.evil>0",
		"buy": {
			"gold": 15000,
			"tomes": 50,
			"research": 15000,
			"souls": 150,
			"potionessence": 1
		},
		"cost": {
			"herbs": 50,
			"research": 15000,
			"bodies": 100,
			"souls": 100,
			"bloodgem": 50,
			"potionessence": 5
		},
		"use": {
			"hp.max": 1,
			"element.max": 0.1
		}
	},
	{
		"id": "pot_attunement",
		"name": "vial of attunement",
		"desc": "Causes you to become more attuned to the world's elements. Harmful to one's physical body.",
		"level": 25,
		"require": "g.potions>=10",
		"buy": {
			"gold": 15000,
			"tomes": 50,
			"research": 15000,
			"firegem": 50,
			"airgem": 50,
			"watergem": 50,
			"earthgem": 50,
			"potionessence": 1
		},
		"cost": {
			"herbs": 50,
			"hp": 150,
			"research": 15000,
			"gold": 10000,
			"firegem": 50,
			"airgem": 50,
			"watergem": 50,
			"earthgem": 50,
			"potionessence": 5
		},
		"use": {
			"hp.max": -4,
			"element.max": 0.25
		}
	}
]